…
Join mutation and maf files
---------------------------

``` r
joined_frequency <- inner_join(mutations_final, maf, by="position") %>%
  select(-ancestral)
false_negatives <- anti_join(mutations_final, maf, by="position")
false_positives <- anti_join(maf, mutations_final, by="position")
arrange(false_negatives, abs(0.5-frequency))
```

    ## # A tibble: 382,719 x 4
    ##    position ancestral base  frequency
    ##       <dbl> <chr>     <chr>     <dbl>
    ##  1 13688018 T         G         0.307
    ##  2 21803017 C         G         0.298
    ##  3 11066589 T         C         0.290
    ##  4  1296170 T         G         0.284
    ##  5 11432447 C         A         0.283
    ##  6 17159022 T         C         0.276
    ##  7 13777827 T         C         0.274
    ##  8  8313891 C         T         0.272
    ##  9 25851336 A         T         0.27 
    ## 10  1896820 C         T         0.264
    ## # … with 382,709 more rows
…
